0 0.5891666666666667 0.5322222222222223 0.685 0.7088888888888889
0 0.14083333333333334 0.5277777777777778 0.2783333333333334 0.66
0 0.19416666666666668 0.07111111111111111 0.38833333333333336 0.14222222222222222
