0 0.48750000000000004 0.5888888888888889 0.375 0.49777777777777776
0 0.5283333333333333 0.07222222222222222 0.4733333333333334 0.14
0 0.88 0.6622222222222223 0.24000000000000002 0.4577777777777778
0 0.08833333333333333 0.07777777777777778 0.17333333333333334 0.15555555555555556
