0 0.2516666666666667 0.3511111111111111 0.49333333333333335 0.6466666666666666
0 0.43500000000000005 0.0022222222222222222 0.5633333333333334 0.4777777777777778
0 0.0 0.04666666666666667 0.17500000000000002 0.6222222222222222
0 0.19833333333333333 0.0022222222222222222 0.28500000000000003 0.13333333333333333
