0 0.22666666666666668 0.24666666666666667 0.5516666666666667 0.6111111111111112
0 0.0 0.0 0.3916666666666667 0.22666666666666666
0 0.0016666666666666668 0.5666666666666667 0.16833333333333333 0.43333333333333335
